MAT381E - INTRODUCTION TO DATA SCIENCE Forest Fires in Turkey
…
```r
turkey <- turkey %>%
              select(adm1_tr) %>%
              rename("Province" = adm1_tr)
```
---

```r
data_forestareas <- read_excel("data/Forest areas of all cities.xlsx")
data_forestareas
```

```
## # A tibble: 81 x 2
##    Province   `Total Hectare`
##    <chr>                <dbl>
##  1 İstanbul            240688
##  2 Tekirdağ            101174
##  3 Edirne              103014
##  4 Kırklareli          254124
##  5 Balıkesir           632038
##  6 Çanakkale           480465
##  7 İzmir               478547
##  8 Aydın               326605
##  9 Denizli             588672
## 10 Muğla               829309
## # ... with 71 more rows
```
…
[FOREST AREA](file:///C:/Users/beyzanur/Desktop/project_final_report-firefighter/Forest%20Area%20Map.html)
---

**EVOLUTION OF TOTAL WILDFIRE AREAS**

```r
data_33years <- read_excel("data/Forest Fires of 33 Years.xlsx")
data_33years
```

```
## # A tibble: 33 x 11
##     Year `Total Hectare` `Numbers of fore~ `Kasıt           ~ `Kasıt           ~
##    <dbl>           <dbl> <chr>             <chr>              <chr>             
##  1  1988           18210 1372              -                  -                 
##  2  1989           13099 1633              -                  -                 
##  3  1990           13742 1750              -                  -                 
##  4  1991            8081 1481              -                  -                 
##  5  1992           12232 2117              -                  -                 
##  6  1993           15393 2545              -                  -                 
##  7  1994           30828 3239              -                  -                 
##  8  1995            7676 1770              -                  -                 
##  9  1996           14922 1645              -                  -                 
## 10  1997            6317 1339              193                923               
## # ... with 23 more rows, and 6 more variables:
## #   İhmal-Kaza            Negligence-Accident adet <chr>,
## #   İhmal-Kaza            Negligence-Accident adet  hektar <chr>,
## #   Doğal                       Natural (Lighting) adet <chr>,
## #   Doğal                       Natural (Lighting) adet hektar <chr>,
## #   Sebebi Bilinmeyen       Unknown adet <chr>,
## #   Sebebi Bilinmeyen       Unknown adet hektar <chr>
```
…
<img src="project_presentation_FireFighter_files/figure-html/unnamed-chunk-12-1.png" style="display: block; margin: auto;" />

---

**EVOLUTION OF TOTAL WILDFIRE NUMBERS**

```r
yillara_gore_data <- read_xlsx("data/yangin19972020.xlsx") 
yillara_gore_data
```

```
## # A tibble: 24 x 3
##    YILLAR YANAN_ALAN_MİKTARI YANGIN_SAYISI
##     <dbl>              <dbl>         <dbl>
##  1   1997               6317          1339
##  2   1998               6764          1932
##  3   1999               5804          2075
##  4   2000              26353          2353
##  5   2001               7394          2631
##  6   2002               8514          1471
##  7   2003               6644          2177
##  8   2004               4876          1762
##  9   2005               2821          1530
## 10   2006               7762          2227
## # ... with 14 more rows
```
…
<img src="project_presentation_FireFighter_files/figure-html/unnamed-chunk-14-1.png" style="display: block; margin: auto;" />

---

**FOREST FIRE AMOUNTS OF ALL PROVINCES IN 2020**

```r
data_allprovinces <- read_excel("data/Forest fire amounts of all provinces in 2020.xlsx")
data_allprovinces
```

```
## # A tibble: 81 x 4
##    `Third level` Province   Number Hectare           
##    <chr>         <chr>      <chr>  <chr>             
##  1 TR100         İstanbul   147    62.28             
##  2 TR211         Tekirdağ   21     99.15             
##  3 TR212         Edirne     34     202.91            
##  4 TR213         Kırklareli 17     10.220000000000001
##  5 TR221         Balıkesir  80     104.23            
##  6 TR222         Çanakkale  101    871.7             
##  7 TR310         İzmir      167    2329.2199999999998
##  8 TR321         Aydın      64     326.57            
##  9 TR322         Denizli    31     321.69            
## 10 TR323         Muğla      260    478.22            
## # ... with 71 more rows
```
…
[FOREST FIRE AMOUNTS OF ALL PROVINCES IN 2020](file:///C:/Users/beyzanur/Desktop/project_final_report-firefighter/Amount%20of%20Burned%20Area%20Map.html)
---

**PROVINCES WITH THE MOST FOREST FIRES IN 2020**

```r
il_dagilimi_data <- read_xlsx("data/illeregoredagilimi.xlsx")
il_dagilimi_data
```

```
## # A tibble: 78 x 4
##    `Third level` Province      Number Hectare
##    <chr>         <chr>          <dbl>   <dbl>
##  1 TR323         Muğla            260   478. 
##  2 TR611         Antalya          260   400. 
##  3 TR310         İzmir            167  2329. 
##  4 TR821         Kastamonu        155  1491. 
##  5 TR100         İstanbul         147    62.3
##  6 TR621         Adana            125  2645. 
##  7 TR331         Manisa           121  1791. 
##  8 TR222         Çanakkale        101   872. 
##  9 TR631         Hatay            100  4979. 
## 10 TR632         Kahramanmaraş     94   306. 
## # ... with 68 more rows
```
…
<img src="project_presentation_FireFighter_files/figure-html/unnamed-chunk-24-1.png" style="display: block; margin: auto;" />
---
**WİLDFIRE COMPARISONS IN SOME CITIES**

```r
data_provinces <- read_excel("data/2013-2018.xlsx")
data_provinces
```

```
## # A tibble: 656 x 4
##     Year Province   Number Hectare           
##    <dbl> <chr>      <chr>  <chr>             
##  1  2020 İstanbul   147    62.28             
##  2  2020 Tekirdağ   21     99.15             
##  3  2020 Edirne     34     202.91            
##  4  2020 Kırklareli 17     10.220000000000001
##  5  2020 Balıkesir  80     104.23            
##  6  2020 Çanakkale  101    871.7             
##  7  2020 İzmir      167    2329.2199999999998
##  8  2020 Aydın      64     326.57            
##  9  2020 Denizli    31     321.69            
## 10  2020 Muğla      260    478.22            
## # ... with 646 more rows
```
…
